tv/blockgraph/mockcentral/config/SwaggerConfig.class
tv/blockgraph/mockcentral/service/AccessLookUpService.class
tv/blockgraph/mockcentral/transactions/TransactionsLogger.class
tv/blockgraph/mockcentral/MockCentralApplication.class
tv/blockgraph/mockcentral/controller/MockCentralResourceController.class
tv/blockgraph/mockcentral/participant_data/ParticipantObj.class
tv/blockgraph/mockcentral/access/AccessResponse.class
tv/blockgraph/mockcentral/controller/MockParticipantController.class
tv/blockgraph/mockcentral/tables/ParticipantRecord.class
tv/blockgraph/mockcentral/tables/LookupTable.class
